%YAML 1.1
%TAG !u! tag:unity3d.com,2011:
--- !u!1045 &1
EditorBuildSettings:
  m_ObjectHideFlags: 0
  serializedVersion: 2
  m_Scenes:
  - enabled: 0
    path: 
    guid: 00000000000000000000000000000000
  - enabled: 1
    path: Assets/Scenes/Stage1.unity
    guid: 971682f54524ebc458e145667efc75f5
  - enabled: 0
    path: Assets/Scenes/StageBoss.unity
    guid: 582eba5e50cb71e4897dbce85b0d8ae6
  - enabled: 1
    path: Assets/Scenes/Stage2.unity
    guid: cb01f0dbbc0f83242923746fff26fa8b
  - enabled: 0
    path: 
    guid: 00000000000000000000000000000000
  - enabled: 0
    path: 
    guid: 00000000000000000000000000000000
  - enabled: 1
    path: Assets/Scenes/EndStage.unity
    guid: 1eaf0cf8ba038d24db7d0db165622745
  m_configObjects:
    com.unity.input.settings: {fileID: 11400000, guid: 9921fd3933696c24bae848cebc0d9dd3, type: 2}
